%!PS-Adobe-3.0 EPSF-3.0
%%Creator: MATLAB, The MathWorks, Inc. Version 8.0.0.783 (R2012b). Operating System: Linux 3.2.0-38-generic #61-Ubuntu SMP Tue Feb 19 12:18:21 UTC 2013 x86_64.
%%Title: /home/bo/workspace/calibration-toolkit/doc/iros2013/image/stereograph.eps
%%CreationDate: 03/03/2013  11:45:33
%%DocumentNeededFonts: Helvetica
%%DocumentProcessColors: Cyan Magenta Yellow Black
%%LanguageLevel: 2
%%Pages: 1
%%BoundingBox:   148   249   462   542
%%EndComments

%%BeginProlog
% MathWorks dictionary
/MathWorks 160 dict begin
% definition operators
/bdef {bind def} bind def
/ldef {load def} bind def
/xdef {exch def} bdef
/xstore {exch store} bdef
% operator abbreviations
/c  /clip ldef
/cc /concat ldef
/cp /closepath ldef
/gr /grestore ldef
/gs /gsave ldef
/mt /moveto ldef
/np /newpath ldef
/cm /currentmatrix ldef
/sm /setmatrix ldef
/rm /rmoveto ldef
/rl /rlineto ldef
/s {show newpath} bdef
/sc {setcmykcolor} bdef
/sr /setrgbcolor ldef
/sg /setgray ldef
/w /setlinewidth ldef
/j /setlinejoin ldef
/cap /setlinecap ldef
/rc {rectclip} bdef
/rf {rectfill} bdef
% page state control
/pgsv () def
/bpage {/pgsv save def} bdef
/epage {pgsv restore} bdef
/bplot /gsave ldef
/eplot {stroke grestore} bdef
% orientation switch
/portraitMode 0 def /landscapeMode 1 def /rotateMode 2 def
% coordinate system mappings
/dpi2point 0 def
% font control
/FontSize 0 def
/FMS {/FontSize xstore findfont [FontSize 0 0 FontSize neg 0 0]
  makefont setfont} bdef
/reencode {exch dup where {pop load} {pop StandardEncoding} ifelse
  exch dup 3 1 roll findfont dup length dict begin
  { 1 index /FID ne {def}{pop pop} ifelse } forall
  /Encoding exch def currentdict end definefont pop} bdef
/isroman {findfont /CharStrings get /Agrave known} bdef
/FMSR {3 1 roll 1 index dup isroman {reencode} {pop pop} ifelse
  exch FMS} bdef
/csm {1 dpi2point div -1 dpi2point div scale neg translate
 dup landscapeMode eq {pop -90 rotate}
  {rotateMode eq {90 rotate} if} ifelse} bdef
% line types: solid, dotted, dashed, dotdash
/SO { [] 0 setdash } bdef
/DO { [.5 dpi2point mul 4 dpi2point mul] 0 setdash } bdef
/DA { [6 dpi2point mul] 0 setdash } bdef
/DD { [.5 dpi2point mul 4 dpi2point mul 6 dpi2point mul 4
  dpi2point mul] 0 setdash } bdef
% macros for lines and objects
/L {lineto stroke} bdef
/MP {3 1 roll moveto 1 sub {rlineto} repeat} bdef
/AP {{rlineto} repeat} bdef
/PDlw -1 def
/W {/PDlw currentlinewidth def setlinewidth} def
/PP {closepath eofill} bdef
/DP {closepath stroke} bdef
/MR {4 -2 roll moveto dup  0 exch rlineto exch 0 rlineto
  neg 0 exch rlineto closepath} bdef
/FR {MR stroke} bdef
/PR {MR fill} bdef
/L1i {{currentfile picstr readhexstring pop} image} bdef
/tMatrix matrix def
/MakeOval {newpath tMatrix currentmatrix pop translate scale
0 0 1 0 360 arc tMatrix setmatrix} bdef
/FO {MakeOval stroke} bdef
/PO {MakeOval fill} bdef
/PD {currentlinewidth 2 div 0 360 arc fill
   PDlw -1 eq not {PDlw w /PDlw -1 def} if} def
/FA {newpath tMatrix currentmatrix pop translate scale
  0 0 1 5 -2 roll arc tMatrix setmatrix stroke} bdef
/PA {newpath tMatrix currentmatrix pop	translate 0 0 moveto scale
  0 0 1 5 -2 roll arc closepath tMatrix setmatrix fill} bdef
/FAn {newpath tMatrix currentmatrix pop translate scale
  0 0 1 5 -2 roll arcn tMatrix setmatrix stroke} bdef
/PAn {newpath tMatrix currentmatrix pop translate 0 0 moveto scale
  0 0 1 5 -2 roll arcn closepath tMatrix setmatrix fill} bdef
/vradius 0 def /hradius 0 def /lry 0 def
/lrx 0 def /uly 0 def /ulx 0 def /rad 0 def
/MRR {/vradius xdef /hradius xdef /lry xdef /lrx xdef /uly xdef
  /ulx xdef newpath tMatrix currentmatrix pop ulx hradius add uly
  vradius add translate hradius vradius scale 0 0 1 180 270 arc 
  tMatrix setmatrix lrx hradius sub uly vradius add translate
  hradius vradius scale 0 0 1 270 360 arc tMatrix setmatrix
  lrx hradius sub lry vradius sub translate hradius vradius scale
  0 0 1 0 90 arc tMatrix setmatrix ulx hradius add lry vradius sub
  translate hradius vradius scale 0 0 1 90 180 arc tMatrix setmatrix
  closepath} bdef
/FRR {MRR stroke } bdef
/PRR {MRR fill } bdef
/MlrRR {/lry xdef /lrx xdef /uly xdef /ulx xdef /rad lry uly sub 2 div def
  newpath tMatrix currentmatrix pop ulx rad add uly rad add translate
  rad rad scale 0 0 1 90 270 arc tMatrix setmatrix lrx rad sub lry rad
  sub translate rad rad scale 0 0 1 270 90 arc tMatrix setmatrix
  closepath} bdef
/FlrRR {MlrRR stroke } bdef
/PlrRR {MlrRR fill } bdef
/MtbRR {/lry xdef /lrx xdef /uly xdef /ulx xdef /rad lrx ulx sub 2 div def
  newpath tMatrix currentmatrix pop ulx rad add uly rad add translate
  rad rad scale 0 0 1 180 360 arc tMatrix setmatrix lrx rad sub lry rad
  sub translate rad rad scale 0 0 1 0 180 arc tMatrix setmatrix
  closepath} bdef
/FtbRR {MtbRR stroke } bdef
/PtbRR {MtbRR fill } bdef
/stri 6 array def /dtri 6 array def
/smat 6 array def /dmat 6 array def
/tmat1 6 array def /tmat2 6 array def /dif 3 array def
/asub {/ind2 exch def /ind1 exch def dup dup
  ind1 get exch ind2 get sub exch } bdef
/tri_to_matrix {
  2 0 asub 3 1 asub 4 0 asub 5 1 asub
  dup 0 get exch 1 get 7 -1 roll astore } bdef
/compute_transform {
  dmat dtri tri_to_matrix tmat1 invertmatrix 
  smat stri tri_to_matrix tmat2 concatmatrix } bdef
/ds {stri astore pop} bdef
/dt {dtri astore pop} bdef
/db {2 copy /cols xdef /rows xdef mul dup 3 mul string
  currentfile 
  3 index 0 eq {/ASCIIHexDecode filter}
  {/ASCII85Decode filter 3 index 2 eq {/RunLengthDecode filter} if }
  ifelse exch readstring pop
  dup 0 3 index getinterval /rbmap xdef
  dup 2 index dup getinterval /gbmap xdef
  1 index dup 2 mul exch getinterval /bbmap xdef pop pop}bdef
/it {gs np dtri aload pop moveto lineto lineto cp c
  cols rows 8 compute_transform 
  rbmap gbmap bbmap true 3 colorimage gr}bdef
/il {newpath moveto lineto stroke}bdef
currentdict end def
%%EndProlog

%%BeginSetup
MathWorks begin

0 cap

end
%%EndSetup

%%Page: 1 1
%%BeginPageSetup
%%PageBoundingBox:   148   249   462   542
MathWorks begin
bpage
%%EndPageSetup

%%BeginObject: obj1
bplot

/dpi2point 12 def
portraitMode 1776 6504 csm

    0     0  3773  3513 rc
90 dict begin %Colortable dictionary
/c0 { 0.000000 0.000000 0.000000 sr} bdef
/c1 { 1.000000 1.000000 1.000000 sr} bdef
/c2 { 0.900000 0.000000 0.000000 sr} bdef
/c3 { 0.000000 0.820000 0.000000 sr} bdef
/c4 { 0.000000 0.000000 0.800000 sr} bdef
/c5 { 0.910000 0.820000 0.320000 sr} bdef
/c6 { 1.000000 0.260000 0.820000 sr} bdef
/c7 { 0.000000 0.820000 0.820000 sr} bdef
c0
1 j
1 sg
   0    0 3774 3514 rf
6 w
0 3514 3773 0 0 -3514 0 3513 4 MP
PP
-3773 0 0 3514 3773 0 0 -3514 0 3513 5 MP stroke
4 w
DO
SO
6 w
   0 3513 mt 3773 3513 L
   0 3513 mt    0   -1 L
0.5 sg
86 32 12 5 11 5 11 5 12 5 11 4 11 5 12 5 
11 5 11 5 12 5 11 5 11 4 12 5 11 5 11 5 
12 5 11 5 11 5 11 4 12 5 1336 1594 22 MP stroke
97 0 88 0 87 0 87 0 88 0 87 0 87 0 88 0 
87 0 87 0 88 0 87 0 87 0 88 0 87 0 87 0 
88 0 87 0 87 0 87 0 88 0 1336 1518 22 MP stroke
97 -22 76 -21 76 -21 76 -21 76 -21 76 -21 76 -21 76 -20 
77 -21 76 -21 76 -21 77 -20 76 -21 77 -20 77 -20 77 -21 
77 -20 77 -20 77 -19 77 -20 78 -19 1336 1464 22 MP stroke
86 -43 65 -37 64 -38 65 -37 65 -37 64 -37 65 -37 65 -38 
64 -37 65 -37 65 -37 64 -37 65 -38 65 -37 64 -37 65 -37 
65 -37 64 -38 65 -37 65 -37 64 -37 1272 1432 22 MP stroke
76 -76 45 -47 45 -48 46 -47 45 -49 45 -48 46 -49 45 -49 
46 -49 45 -50 46 -49 46 -49 45 -50 46 -49 46 -49 47 -49 
46 -48 46 -48 47 -48 46 -48 47 -47 1207 1432 22 MP stroke
43 -86 22 -51 23 -50 23 -50 22 -51 23 -51 23 -50 22 -51 
23 -51 22 -50 23 -51 23 -50 22 -51 23 -50 23 -50 22 -50 
23 -50 23 -49 22 -49 23 -49 22 -49 1175 1432 22 MP stroke
0 -97 2 -41 1 -41 2 -41 2 -42 1 -42 2 -43 2 -42 
1 -43 2 -43 1 -43 2 -42 2 -43 1 -43 2 -43 2 -42 
1 -42 2 -42 1 -41 2 -41 2 -41 1131 1432 22 MP stroke
-54 -86 -14 -25 -15 -25 -14 -24 -14 -26 -14 -25 -14 -26 -14 -25 
-14 -26 -13 -26 -14 -26 -14 -26 -14 -25 -13 -26 -14 -26 -14 -25 
-14 -26 -14 -25 -14 -25 -15 -25 -14 -24 1088 1432 22 MP stroke
-97 -33 -11 -4 -11 -5 -11 -5 -11 -4 -11 -4 -10 -4 -10 -5 
-11 -4 -10 -4 -10 -4 -10 -4 -10 -4 -10 -4 -10 -4 -10 -4 
-10 -5 -9 -4 -10 -4 -10 -5 -10 -5 927 1443 22 MP stroke
-97 32 -14 7 -15 6 -14 6 -15 6 -14 6 -15 5 -14 6 
-15 5 -14 6 -15 5 -15 5 -14 5 -15 6 -14 5 -15 5 
-14 4 -15 5 -14 5 -15 5 -15 5 927 1583 22 MP stroke
-75 75 -24 30 -25 29 -25 29 -24 30 -25 30 -25 29 -25 30 
-26 30 -25 30 -25 30 -26 30 -25 30 -26 30 -26 29 -26 30 
-25 30 -26 29 -26 30 -26 29 -26 29 1067 1605 22 MP stroke
-32 97 -18 53 -17 54 -18 53 -17 53 -17 54 -17 53 -17 53 
-17 53 -17 53 -17 53 -17 53 -17 53 -17 53 -17 52 -18 53 
-17 52 -17 52 -18 53 -17 52 -18 51 1110 1605 22 MP stroke
0 108 2 68 1 68 2 69 2 70 1 69 2 70 2 70 
1 70 2 71 1 70 2 70 2 71 1 70 2 70 2 70 
1 69 2 70 1 69 2 68 2 68 1131 1605 22 MP stroke
32 108 26 76 26 76 25 77 26 77 25 77 25 77 25 78 
26 77 25 78 25 78 25 77 25 78 25 77 25 78 25 77 
26 77 25 77 26 77 25 76 26 76 1153 1605 22 MP stroke
64 97 48 75 47 75 48 75 48 75 49 75 49 76 49 76 
49 76 49 76 50 76 49 76 49 76 49 76 49 75 49 76 
49 76 48 75 48 75 48 75 47 74 1185 1605 22 MP stroke
75 75 71 63 71 64 71 63 71 64 70 63 71 64 70 64 
71 64 70 63 70 64 71 64 70 64 70 64 71 64 70 63 
71 64 71 64 70 63 71 63 71 63 1218 1605 22 MP stroke
-98 -43 -11 -5 -11 -5 -11 -4 -11 -4 -10 -5 -11 -4 -11 -4 
-10 -4 -11 -4 -10 -4 -11 -4 -10 -4 -11 -5 -11 -4 -10 -4 
-11 -4 -11 -5 -11 -4 -11 -5 -11 -4 2371 2003 22 MP stroke
86 -53 25 -18 24 -18 24 -18 24 -17 25 -18 24 -18 24 -17 
24 -17 25 -18 24 -17 24 -17 24 -16 25 -17 24 -16 24 -16 
24 -16 25 -16 24 -15 24 -15 24 -15 2695 1993 22 MP stroke
43 -86 25 -40 23 -42 24 -41 23 -42 23 -42 23 -42 23 -43 
23 -43 23 -42 22 -43 23 -43 23 -43 22 -43 23 -42 23 -42 
23 -43 24 -41 23 -42 24 -41 24 -41 2619 1993 22 MP stroke
11 -97 10 -62 9 -62 9 -62 10 -62 9 -63 9 -62 9 -63 
9 -63 9 -63 9 -63 9 -63 8 -63 9 -63 9 -63 9 -63 
10 -63 9 -62 9 -62 10 -62 9 -62 2587 1993 22 MP stroke
87 76 16 14 16 15 16 14 16 15 17 15 16 14 16 15 
16 14 16 15 16 14 17 15 16 14 16 15 16 15 16 14 
16 15 17 14 16 15 16 14 16 15 2673 2165 22 MP stroke
-43 -97 -37 -76 -37 -77 -37 -77 -36 -78 -37 -77 -37 -78 -36 -78 
-36 -79 -37 -78 -36 -78 -37 -79 -36 -78 -37 -79 -36 -78 -37 -78 
-36 -77 -37 -78 -37 -77 -37 -76 -37 -77 2533 1993 22 MP stroke
-65 -76 -60 -69 -60 -71 -60 -70 -61 -71 -60 -71 -60 -72 -61 -71 
-61 -72 -60 -72 -61 -72 -60 -72 -61 -72 -61 -72 -60 -71 -61 -72 
-60 -71 -60 -71 -61 -71 -60 -70 -59 -70 2500 1993 22 MP stroke
-86 -65 -76 -53 -77 -54 -77 -54 -77 -55 -78 -54 -77 -55 -78 -54 
-78 -55 -79 -55 -78 -55 -78 -55 -77 -55 -78 -55 -77 -55 -78 -54 
-76 -55 -77 -54 -75 -54 -76 -54 -74 -54 2457 1993 22 MP stroke
97 0 14 0 15 0 14 0 14 0 14 0 13 0 14 0 
14 0 13 0 14 0 13 0 13 0 13 0 13 0 13 0 
13 0 13 0 13 0 13 0 13 0 2781 2079 22 MP stroke
-108 -43 -82 -31 -82 -31 -83 -31 -82 -32 -82 -31 -82 -31 -81 -32 
-82 -32 -82 -31 -82 -32 -82 -32 -83 -32 -82 -33 -83 -32 -82 -32 
-83 -32 -83 -32 -84 -33 -83 -32 -84 -32 2371 2003 22 MP stroke
-97 -11 -87 -11 -87 -12 -87 -11 -87 -11 -86 -12 -87 -11 -87 -11 
-86 -12 -87 -11 -86 -11 -87 -11 -86 -12 -87 -11 -87 -11 -86 -12 
-87 -11 -87 -11 -87 -12 -87 -11 -87 -11 2371 2057 22 MP stroke
-108 11 -81 10 -81 10 -80 10 -80 10 -81 10 -80 11 -80 10 
-81 11 -80 11 -81 11 -80 11 -81 11 -80 11 -81 11 -81 11 
-82 11 -81 12 -82 11 -82 11 -82 12 2371 2100 22 MP stroke
-108 43 -67 28 -68 27 -68 27 -67 28 -67 27 -68 28 -67 27 
-67 28 -67 27 -67 28 -67 27 -68 28 -67 27 -67 28 -67 27 
-68 28 -67 27 -68 28 -67 27 -68 28 2371 2165 22 MP stroke
-97 75 -55 43 -55 42 -54 43 -55 43 -55 43 -55 43 -55 44 
-55 43 -55 44 -55 44 -55 43 -55 44 -55 43 -55 44 -55 43 
-55 43 -55 43 -55 43 -55 43 -55 42 2468 2165 22 MP stroke
-65 97 -34 49 -34 49 -35 49 -34 49 -35 50 -34 50 -35 50 
-35 50 -34 50 -35 50 -35 50 -35 50 -34 50 -35 50 -35 50 
-34 50 -34 49 -35 49 -34 49 -34 49 2522 2165 22 MP stroke
-21 97 -12 47 -11 48 -12 47 -13 48 -12 48 -12 48 -13 48 
-13 48 -12 48 -13 49 -12 48 -13 48 -12 47 -12 48 -12 47 
-11 47 -11 47 -11 46 -10 46 -10 46 2554 2165 22 MP stroke
22 108 8 34 8 34 9 34 8 33 9 34 8 34 9 34 
9 34 8 34 9 34 8 34 8 34 9 34 8 34 8 34 
7 34 8 34 7 34 7 34 7 34 2597 2165 22 MP stroke
/c8 { 1.000000 1.000000 0.700000 sr} bdef
c8
0 163 -411 0 0 -163 411 0 926 1600 5 MP
PP
12 w
/c9 { 0.300000 0.300000 1.000000 sr} bdef
c9
0 0 0 163 -411 0 0 -163 411 0 926 1600 6 MP stroke
0 sg
%%IncludeResource: font Helvetica
/Helvetica /ISOLatin1Encoding 108 FMSR

 957 1556 mt 
(Cam#1) s
c8
0 163 -412 0 0 -163 412 0 2370 2160 5 MP
PP
c9
0 0 0 163 -412 0 0 -163 412 0 2370 2160 6 MP stroke
0 sg
2402 2117 mt 
(Cam#2) s
c8
0 163 -411 0 0 -163 411 0 1648 1880 5 MP
PP
c9
0 0 0 163 -411 0 0 -163 411 0 1648 1880 6 MP stroke
0 sg
1704 1837 mt 
(Pos#1) s
c8
0 163 -411 0 0 -163 411 0 3179 1600 5 MP
PP
c9
0 0 0 163 -411 0 0 -163 411 0 3179 1600 6 MP stroke
0 sg
3234 1556 mt 
(Pos#2) s
c8
0 163 -412 0 0 -163 412 0 2963 1061 5 MP
PP
c9
0 0 0 163 -412 0 0 -163 412 0 2963 1061 6 MP stroke
0 sg
3019 1017 mt 
(Pos#3) s
c8
0 163 -411 0 0 -163 411 0 2586 640 5 MP
PP
c9
0 0 0 163 -411 0 0 -163 411 0 2586 640 6 MP stroke
0 sg
2642  597 mt 
(Pos#4) s
c8
0 163 -412 0 0 -163 412 0 2068 382 5 MP
PP
c9
0 0 0 163 -412 0 0 -163 412 0 2068 382 6 MP stroke
0 sg
2124  338 mt 
(Pos#5) s
c8
0 163 -412 0 0 -163 412 0 2963 2699 5 MP
PP
c9
0 0 0 163 -412 0 0 -163 412 0 2963 2699 6 MP stroke
0 sg
3019 2656 mt 
(Pos#6) s
c8
0 163 -411 0 0 -163 411 0 1508 338 5 MP
PP
c9
0 0 0 163 -411 0 0 -163 411 0 1508 338 6 MP stroke
0 sg
1564  295 mt 
(Pos#7) s
c8
0 163 -411 0 0 -163 411 0 958 489 5 MP
PP
c9
0 0 0 163 -411 0 0 -163 411 0 958 489 6 MP stroke
0 sg
1014  446 mt 
(Pos#8) s
c8
0 163 -412 0 0 -163 412 0 505 834 5 MP
PP
c9
0 0 0 163 -412 0 0 -163 412 0 505 834 6 MP stroke
0 sg
 561  791 mt 
(Pos#9) s
c8
0 163 -473 0 0 -163 473 0 3148 2160 5 MP
PP
c9
0 0 0 163 -473 0 0 -163 473 0 3148 2160 6 MP stroke
0 sg
3204 2117 mt 
(Pos#10) s
c8
0 163 -474 0 0 -163 474 0 172 1320 5 MP
PP
c9
0 0 0 163 -474 0 0 -163 474 0 172 1320 6 MP stroke
0 sg
 229 1276 mt 
(Pos#11) s
c8
0 163 -473 0 0 -163 473 0 65 1880 5 MP
PP
c9
0 0 0 163 -473 0 0 -163 473 0 65 1880 6 MP stroke
0 sg
 121 1837 mt 
(Pos#12) s
c8
0 163 -474 0 0 -163 474 0 172 2441 5 MP
PP
c9
0 0 0 163 -474 0 0 -163 474 0 172 2441 6 MP stroke
0 sg
 229 2397 mt 
(Pos#13) s
c8
0 163 -474 0 0 -163 474 0 474 2926 5 MP
PP
c9
0 0 0 163 -474 0 0 -163 474 0 474 2926 6 MP stroke
0 sg
 531 2882 mt 
(Pos#14) s
c8
0 163 -473 0 0 -163 473 0 3234 705 5 MP
PP
c9
0 0 0 163 -473 0 0 -163 473 0 3234 705 6 MP stroke
0 sg
3291  662 mt 
(Pos#15) s
c8
0 163 -473 0 0 -163 473 0 3234 252 5 MP
PP
c9
0 0 0 163 -473 0 0 -163 473 0 3234 252 6 MP stroke
0 sg
3291  209 mt 
(Pos#16) s
c8
0 163 -473 0 0 -163 473 0 927 3271 5 MP
PP
c9
0 0 0 163 -473 0 0 -163 473 0 927 3271 6 MP stroke
0 sg
 984 3227 mt 
(Pos#17) s
c8
0 163 -473 0 0 -163 473 0 1477 3422 5 MP
PP
c9
0 0 0 163 -473 0 0 -163 473 0 1477 3422 6 MP stroke
0 sg
1534 3378 mt 
(Pos#18) s
c8
0 163 -474 0 0 -163 474 0 2037 3379 5 MP
PP
c9
0 0 0 163 -474 0 0 -163 474 0 2037 3379 6 MP stroke
0 sg
2094 3335 mt 
(Pos#19) s
c8
0 163 -473 0 0 -163 473 0 2555 3120 5 MP
PP
c9
0 0 0 163 -473 0 0 -163 473 0 2555 3120 6 MP stroke
0 sg
2612 3076 mt 
(Pos#20) s
6 w

end %%Color Dict

eplot
%%EndObject

epage
end

showpage

%%Trailer
%%EOF
