%!PS-Adobe-3.0 EPSF-3.0
%%Creator: MATLAB, The MathWorks, Inc. Version 8.0.0.783 (R2012b). Operating System: Linux 3.2.0-38-generic #61-Ubuntu SMP Tue Feb 19 12:18:21 UTC 2013 x86_64.
%%Title: /home/bo/workspace/calibration-toolkit/doc/iros2013/image/stereo3dthin.eps
%%CreationDate: 03/03/2013  11:47:47
%%DocumentNeededFonts: Helvetica
%%DocumentProcessColors: Cyan Magenta Yellow Black
%%LanguageLevel: 2
%%Pages: 1
%%BoundingBox:   111   220   499   572
%%EndComments

%%BeginProlog
% MathWorks dictionary
/MathWorks 160 dict begin
% definition operators
/bdef {bind def} bind def
/ldef {load def} bind def
/xdef {exch def} bdef
/xstore {exch store} bdef
% operator abbreviations
/c  /clip ldef
/cc /concat ldef
/cp /closepath ldef
/gr /grestore ldef
/gs /gsave ldef
/mt /moveto ldef
/np /newpath ldef
/cm /currentmatrix ldef
/sm /setmatrix ldef
/rm /rmoveto ldef
/rl /rlineto ldef
/s {show newpath} bdef
/sc {setcmykcolor} bdef
/sr /setrgbcolor ldef
/sg /setgray ldef
/w /setlinewidth ldef
/j /setlinejoin ldef
/cap /setlinecap ldef
/rc {rectclip} bdef
/rf {rectfill} bdef
% page state control
/pgsv () def
/bpage {/pgsv save def} bdef
/epage {pgsv restore} bdef
/bplot /gsave ldef
/eplot {stroke grestore} bdef
% orientation switch
/portraitMode 0 def /landscapeMode 1 def /rotateMode 2 def
% coordinate system mappings
/dpi2point 0 def
% font control
/FontSize 0 def
/FMS {/FontSize xstore findfont [FontSize 0 0 FontSize neg 0 0]
  makefont setfont} bdef
/reencode {exch dup where {pop load} {pop StandardEncoding} ifelse
  exch dup 3 1 roll findfont dup length dict begin
  { 1 index /FID ne {def}{pop pop} ifelse } forall
  /Encoding exch def currentdict end definefont pop} bdef
/isroman {findfont /CharStrings get /Agrave known} bdef
/FMSR {3 1 roll 1 index dup isroman {reencode} {pop pop} ifelse
  exch FMS} bdef
/csm {1 dpi2point div -1 dpi2point div scale neg translate
 dup landscapeMode eq {pop -90 rotate}
  {rotateMode eq {90 rotate} if} ifelse} bdef
% line types: solid, dotted, dashed, dotdash
/SO { [] 0 setdash } bdef
/DO { [.5 dpi2point mul 4 dpi2point mul] 0 setdash } bdef
/DA { [6 dpi2point mul] 0 setdash } bdef
/DD { [.5 dpi2point mul 4 dpi2point mul 6 dpi2point mul 4
  dpi2point mul] 0 setdash } bdef
% macros for lines and objects
/L {lineto stroke} bdef
/MP {3 1 roll moveto 1 sub {rlineto} repeat} bdef
/AP {{rlineto} repeat} bdef
/PDlw -1 def
/W {/PDlw currentlinewidth def setlinewidth} def
/PP {closepath eofill} bdef
/DP {closepath stroke} bdef
/MR {4 -2 roll moveto dup  0 exch rlineto exch 0 rlineto
  neg 0 exch rlineto closepath} bdef
/FR {MR stroke} bdef
/PR {MR fill} bdef
/L1i {{currentfile picstr readhexstring pop} image} bdef
/tMatrix matrix def
/MakeOval {newpath tMatrix currentmatrix pop translate scale
0 0 1 0 360 arc tMatrix setmatrix} bdef
/FO {MakeOval stroke} bdef
/PO {MakeOval fill} bdef
/PD {currentlinewidth 2 div 0 360 arc fill
   PDlw -1 eq not {PDlw w /PDlw -1 def} if} def
/FA {newpath tMatrix currentmatrix pop translate scale
  0 0 1 5 -2 roll arc tMatrix setmatrix stroke} bdef
/PA {newpath tMatrix currentmatrix pop	translate 0 0 moveto scale
  0 0 1 5 -2 roll arc closepath tMatrix setmatrix fill} bdef
/FAn {newpath tMatrix currentmatrix pop translate scale
  0 0 1 5 -2 roll arcn tMatrix setmatrix stroke} bdef
/PAn {newpath tMatrix currentmatrix pop translate 0 0 moveto scale
  0 0 1 5 -2 roll arcn closepath tMatrix setmatrix fill} bdef
/vradius 0 def /hradius 0 def /lry 0 def
/lrx 0 def /uly 0 def /ulx 0 def /rad 0 def
/MRR {/vradius xdef /hradius xdef /lry xdef /lrx xdef /uly xdef
  /ulx xdef newpath tMatrix currentmatrix pop ulx hradius add uly
  vradius add translate hradius vradius scale 0 0 1 180 270 arc 
  tMatrix setmatrix lrx hradius sub uly vradius add translate
  hradius vradius scale 0 0 1 270 360 arc tMatrix setmatrix
  lrx hradius sub lry vradius sub translate hradius vradius scale
  0 0 1 0 90 arc tMatrix setmatrix ulx hradius add lry vradius sub
  translate hradius vradius scale 0 0 1 90 180 arc tMatrix setmatrix
  closepath} bdef
/FRR {MRR stroke } bdef
/PRR {MRR fill } bdef
/MlrRR {/lry xdef /lrx xdef /uly xdef /ulx xdef /rad lry uly sub 2 div def
  newpath tMatrix currentmatrix pop ulx rad add uly rad add translate
  rad rad scale 0 0 1 90 270 arc tMatrix setmatrix lrx rad sub lry rad
  sub translate rad rad scale 0 0 1 270 90 arc tMatrix setmatrix
  closepath} bdef
/FlrRR {MlrRR stroke } bdef
/PlrRR {MlrRR fill } bdef
/MtbRR {/lry xdef /lrx xdef /uly xdef /ulx xdef /rad lrx ulx sub 2 div def
  newpath tMatrix currentmatrix pop ulx rad add uly rad add translate
  rad rad scale 0 0 1 180 360 arc tMatrix setmatrix lrx rad sub lry rad
  sub translate rad rad scale 0 0 1 0 180 arc tMatrix setmatrix
  closepath} bdef
/FtbRR {MtbRR stroke } bdef
/PtbRR {MtbRR fill } bdef
/stri 6 array def /dtri 6 array def
/smat 6 array def /dmat 6 array def
/tmat1 6 array def /tmat2 6 array def /dif 3 array def
/asub {/ind2 exch def /ind1 exch def dup dup
  ind1 get exch ind2 get sub exch } bdef
/tri_to_matrix {
  2 0 asub 3 1 asub 4 0 asub 5 1 asub
  dup 0 get exch 1 get 7 -1 roll astore } bdef
/compute_transform {
  dmat dtri tri_to_matrix tmat1 invertmatrix 
  smat stri tri_to_matrix tmat2 concatmatrix } bdef
/ds {stri astore pop} bdef
/dt {dtri astore pop} bdef
/db {2 copy /cols xdef /rows xdef mul dup 3 mul string
  currentfile 
  3 index 0 eq {/ASCIIHexDecode filter}
  {/ASCII85Decode filter 3 index 2 eq {/RunLengthDecode filter} if }
  ifelse exch readstring pop
  dup 0 3 index getinterval /rbmap xdef
  dup 2 index dup getinterval /gbmap xdef
  1 index dup 2 mul exch getinterval /bbmap xdef pop pop}bdef
/it {gs np dtri aload pop moveto lineto lineto cp c
  cols rows 8 compute_transform 
  rbmap gbmap bbmap true 3 colorimage gr}bdef
/il {newpath moveto lineto stroke}bdef
currentdict end def
%%EndProlog

%%BeginSetup
MathWorks begin

0 cap

end
%%EndSetup

%%Page: 1 1
%%BeginPageSetup
%%PageBoundingBox:   111   220   499   572
MathWorks begin
bpage
%%EndPageSetup

%%BeginObject: obj1
bplot

/dpi2point 12 def
portraitMode 1332 6864 csm

    0     0  4666  4215 rc
85 dict begin %Colortable dictionary
/c0 { 0.000000 0.000000 0.000000 sr} bdef
/c1 { 1.000000 1.000000 1.000000 sr} bdef
/c2 { 0.900000 0.000000 0.000000 sr} bdef
/c3 { 0.000000 0.820000 0.000000 sr} bdef
/c4 { 0.000000 0.000000 0.800000 sr} bdef
/c5 { 0.910000 0.820000 0.320000 sr} bdef
/c6 { 1.000000 0.260000 0.820000 sr} bdef
/c7 { 0.000000 0.820000 0.820000 sr} bdef
c0
1 j
1 sg
   0    0 4667 4216 rf
6 w
-1138 1149 2015 931 1203 -1016 801 2687 4 MP
PP
-2080 -1064 -1138 1149 2015 931 1203 -1016 801 2687 5 MP stroke
-22 -1231 1203 -1016 95 1259 706 1428 4 MP
PP
-1276 988 -22 -1231 1203 -1016 95 1259 706 1428 5 MP stroke
94 -1257 2015 931 22 1231 1982 440 4 MP
PP
-2131 -905 94 -1257 2015 931 22 1231 1982 440 5 MP stroke
4 w
DO
SO
6 w
0 sg
2004 1671 mt 4019 2602 L
1982  440 mt 4113 1345 L
 801 2687 mt 2004 1671 L
 706 1428 mt 1982  440 L
1982  440 mt 2004 1671 L
4113 1345 mt 4019 2602 L
 801 2687 mt 2881 3751 L
2881 3751 mt 4019 2602 L
 706 1428 mt  801 2687 L
1022 2799 mt  973 2841 L
%%IncludeResource: font Helvetica
/Helvetica /ISOLatin1Encoding 120 FMSR

 610 2976 mt 
(-1000) s
1382 2984 mt 1334 3026 L
1037 3161 mt 
(-500) s
1750 3172 mt 1703 3216 L
1610 3351 mt 
(0) s
2127 3365 mt 2080 3409 L
1853 3546 mt 
(500) s
2513 3562 mt 2466 3608 L
2173 3745 mt 
(1000) s
2883 3749 mt 2939 3777 L
2970 3904 mt 
(0) s
3157 3472 mt 3212 3500 L
3243 3626 mt 
(500) s
3422 3205 mt 3476 3231 L
3507 3358 mt 
(1000) s
3678 2946 mt 3733 2971 L
3763 3097 mt 
(1500) s
3927 2694 mt 3981 2719 L
4012 2844 mt 
(2000) s
 733 1779 mt  682 1754 L
 384 1784 mt 
(-500) s
 760 2141 mt  710 2117 L
 616 2147 mt 
(0) s
 787 2492 mt  738 2467 L
 510 2497 mt 
(500) s
3632 3821 mt 
(px) s
gs 706 440 3408 3312 rc
12 w
/c8 { 0.000000 0.000000 1.000000 sr} bdef
c8
3202 2297 mt 3133 2858 L
3133 2858 mt 2758 2292 L
3050 1564 mt 2974 2142 L
2995 2259 mt 2882 2828 L
2750 1883 mt 1852 1942 L
2974 2142 mt 2137 1883 L
2965 2118 mt 2868 2662 L
2898 1694 mt 2863 2466 L
2882 2828 mt 2474 2277 L
2700 2295 mt 1956 1971 L
2691 2063 mt 1775 2052 L
2612 2104 mt 1950 1994 L
2474 2277 mt 2574 1717 L
2868 2662 mt 2610 2068 L
2863 2466 mt 2407 2140 L
2877 1892 mt 2776 2490 L
2816 1740 mt 3202 2297 L
2837 1447 mt 2795 2272 L
2776 2490 mt 2083 2093 L
2723 2625 mt 2494 2167 L
2752 1708 mt 2700 2295 L
2758 2292 mt 2816 1740 L
2795 2272 mt 2159 2120 L
2795 1909 mt 2723 2625 L
2762 1305 mt 2750 1883 L
2633 2655 mt 1923 2267 L
2707 2061 mt 2633 2655 L
2737 2047 mt 2605 2773 L
2710 1478 mt 2691 2063 L
2697 1531 mt 2965 2118 L
2660 1356 mt 2612 2104 L
2644 1904 mt 2582 2496 L
2610 2068 mt 2697 1531 L
1923 2267 mt 1981 1682 L
2472 2256 mt 1789 2210 L
2372 2386 mt 2452 1844 L
2582 2496 mt 1699 2278 L
2469 2341 mt 1541 2466 L
2605 2773 mt 2431 2299 L
2598 2461 mt 2512 3010 L
2574 1717 mt 2995 2259 L
2556 1454 mt 2795 1909 L
2554 1577 mt 2737 2047 L
2512 3010 mt 2372 2386 L
2494 2167 mt 2556 1454 L
2492 1466 mt 2472 2256 L
2452 1844 mt 2598 2461 L
2439 1747 mt 2469 2341 L
2431 2299 mt 2554 1577 L
2427 1376 mt 2898 1694 L
2195 1309 mt 3050 1564 L
2407 2140 mt 2427 1376 L
2184 1301 mt 2837 1447 L
2169 1503 mt 2877 1892 L
2137 1883 mt 2195 1309 L
2159 2120 mt 2184 1301 L
gr

12 w
c8
0 sg
1994 3956 mt 
(px) s
gs 706 440 3408 3312 rc
c8
2083 2093 mt 2169 1503 L
1992 1391 mt 2752 1708 L
1981 1682 mt 2707 2061 L
1977 1247 mt 2660 1356 L
1956 1971 mt 1992 1391 L
1950 1994 mt 1977 1247 L
/c9 { 1.000000 0.000000 0.000000 sr} bdef
c9
1950 2720 mt 1796 2643 L
1945 2572 mt 1950 2720 L
1875 2679 mt 1719 2603 L
1871 2533 mt 1875 2679 L
c8
1852 1942 mt 1847 1362 L
1847 1362 mt 2762 1305 L
gs 1736 2587 147 147 rc
c9
  36   36 1809 2660 FO
gr

c9
1809 2660 mt 1870 2608 L
1796 2643 mt 1790 2495 L
1790 2495 mt 1945 2572 L
c8
1789 1420 mt 2492 1466 L
1777 1466 mt 2710 1478 L
1789 2210 mt 1789 1420 L
1775 2052 mt 1777 1466 L
1743 1688 mt 2644 1904 L
gs 1662 2548 147 147 rc
c9
  36   36 1735 2621 FO
gr

c9
1735 2621 mt 1795 2568 L
1719 2603 mt 1715 2456 L
1715 2456 mt 1871 2533 L
c8
1699 2278 mt 1743 1688 L
1541 2466 mt 1493 1871 L
1493 1871 mt 2439 1747 L
gr

c8
0 sg
 302 2139 mt  -90 rotate
(px) s
90 rotate
6 w
 801 2687 mt 2881 3751 L
 706 1428 mt 2911 2470 L
2881 3751 mt 4019 2602 L
2911 2470 mt 4113 1345 L
 706 1428 mt  801 2687 L
2911 2470 mt 2881 3751 L

end %%Color Dict

eplot
%%EndObject

epage
end

showpage

%%Trailer
%%EOF
