\relax 
\citation{zhang2000flexible}
\citation{bouguet2004camera}
\citation{stoyanov2006camera}
\citation{scaramuzza2009omnidirectional}
\citation{mei10omnidirectional}
\citation{scaramuzza2009omnidirectional}
\citation{bouguet2004camera}
\citation{svoboda2005convenient}
\citation{easycal}
\citation{bouguet2004camera}
\citation{mallon2007pattern}
\citation{easycal}
\citation{easycal}
\citation{schmalz2011camera}
\@writefile{toc}{\contentsline {section}{\numberline {I}Introduction}{1}}
\@writefile{lof}{\contentsline {figure}{\numberline {1}{\ignorespaces Top: An example for the proposed calibration pattern. Middle and bottom row: Noise image components at different frequency. }}{1}}
\newlabel{PatternFig}{{1}{1}}
\citation{lowe2004distinctive}
\citation{bay2006surf}
\citation{lowe2004distinctive}
\@writefile{toc}{\contentsline {section}{\numberline {II}Calibration Pattern}{2}}
\newlabel{PatternSec}{{II}{2}}
\@writefile{toc}{\contentsline {subsection}{\numberline {II-A}Feature Detection Revisited}{2}}
\@writefile{toc}{\contentsline {subsection}{\numberline {II-B}Reversed Engineering}{2}}
\@writefile{toc}{\contentsline {subsection}{\numberline {II-C}Feature Matching}{2}}
\citation{mei10omnidirectional}
\citation{scaramuzza2009omnidirectional}
\citation{mei10omnidirectional}
\citation{mei10omnidirectional}
\citation{scaramuzza2009omnidirectional}
\citation{mei10omnidirectional}
\citation{scaramuzza2009omnidirectional}
\@writefile{toc}{\contentsline {section}{\numberline {III}Single Camera Calibration}{3}}
\@writefile{toc}{\contentsline {subsection}{\numberline {III-A}Camera Models}{3}}
\newlabel{pinholeEqn}{{5}{3}}
\newlabel{parabolaEqn}{{6}{3}}
\newlabel{polynEqn}{{7}{3}}
\@writefile{toc}{\contentsline {subsection}{\numberline {III-B}Initialization}{3}}
\newlabel{initEqn}{{9}{3}}
\@writefile{toc}{\contentsline {subsection}{\numberline {III-C}Refinement}{3}}
\bibstyle{IEEEtran}
\bibdata{main}
\bibcite{zhang2000flexible}{1}
\bibcite{bouguet2004camera}{2}
\bibcite{stoyanov2006camera}{3}
\bibcite{scaramuzza2009omnidirectional}{4}
\bibcite{mei10omnidirectional}{5}
\bibcite{svoboda2005convenient}{6}
\bibcite{easycal}{7}
\bibcite{mallon2007pattern}{8}
\bibcite{schmalz2011camera}{9}
\bibcite{lowe2004distinctive}{10}
\bibcite{bay2006surf}{11}
\@writefile{lof}{\contentsline {figure}{\numberline {2}{\ignorespaces •}}{4}}
\@writefile{toc}{\contentsline {section}{\numberline {IV}Extrinsics Calibration}{4}}
\@writefile{toc}{\contentsline {subsection}{\numberline {IV-A}Initialization}{4}}
\@writefile{lof}{\contentsline {figure}{\numberline {3}{\ignorespaces }}{4}}
\@writefile{lof}{\contentsline {figure}{\numberline {4}{\ignorespaces }}{4}}
\@writefile{toc}{\contentsline {subsection}{\numberline {IV-B}•}{4}}
\@writefile{toc}{\contentsline {section}{\numberline {V}Experiment}{4}}
\@writefile{toc}{\contentsline {section}{\numberline {VI}Acknowledgement}{4}}
\@writefile{toc}{\contentsline {section}{References}{4}}
